{
  "version": "14.0.4",
  "vulnerabilities": [
    {
      "id": "fab389ba9d7f3eeecb5c31f6964325254886d78d111a4e66fda8484d6b4c35a3",
      "category": "sast",
      "name": "Key Exchange without Entity Authentication",
      "message": "Use of ssh InsecureIgnoreHostKey should be audited",
      "description": "The software performs a key exchange with an actor without verifying the identity of that actor.",
      "cve": "foo.go:13:12:     var err error\n13:     _ = ssh.InsecureIgnoreHostKey()\n14:     if err == nil {\n:CWE-322",
      "severity": "Medium",
      "confidence": "High",
      "raw_source_code_extract": "12:     var err error\n13:     _ = ssh.InsecureIgnoreHostKey()\n14:     if err == nil {\n",
      "scanner": {
        "id": "gosec",
        "name": "Gosec"
      },
      "location": {
        "file": "foo.go",
        "start_line": 13
      },
      "identifiers": [
        {
          "type": "gosec_rule_id",
          "name": "Gosec Rule ID G106",
          "value": "G106"
        },
        {
          "type": "CWE",
          "name": "CWE-322",
          "value": "322",
          "url": "https://cwe.mitre.org/data/definitions/322.html"
        }
      ],
      "tracking": {
        "type": "source",
        "items": [
          {
            "file": "foo.go",
            "line_start": 13,
            "line_end": 13,
            "signatures": [
              {
                "algorithm": "scope_offset",
                "value": "foo.go|foo[0]:2"
              }
            ]
          }
        ]
      }
    },
    {
      "id": "e0701aed0c0d5eaff18491f807af61b201d00dbc8f7da1a7179f935777afb746",
      "category": "sast",
      "name": "Improper Neutralization of Input During Web Page Generation ('Cross-site Scripting')",
      "message": "this method will not auto-escape HTML. Verify data is well formed.",
      "description": "The software does not neutralize or incorrectly neutralizes user-controllable input before it is placed in output that is used as a web page that is served to other users.",
      "cve": "main.go:20:19: \t\t\"Title\": \"Test \u003cb\u003eWorld\u003c/b\u003e\",\n20: \t\t\"Body\":  template.HTML(a),\n21: \t}\n:CWE-79",
      "severity": "Medium",
      "confidence": "Low",
      "raw_source_code_extract": "19: \t\t\"Title\": \"Test \u003cb\u003eWorld\u003c/b\u003e\",\n20: \t\t\"Body\":  template.HTML(a),\n21: \t}\n",
      "scanner": {
        "id": "gosec",
        "name": "Gosec"
      },
      "location": {
        "file": "main.go",
        "start_line": 20
      },
      "identifiers": [
        {
          "type": "gosec_rule_id",
          "name": "Gosec Rule ID G203",
          "value": "G203"
        },
        {
          "type": "CWE",
          "name": "CWE-79",
          "value": "79",
          "url": "https://cwe.mitre.org/data/definitions/79.html"
        }
      ],
      "tracking": {
        "type": "source",
        "items": [
          {
            "file": "main.go",
            "line_start": 20,
            "line_end": 20,
            "signatures": [
              {
                "algorithm": "scope_offset",
                "value": "main.go|main[0]:8"
              }
            ]
          }
        ]
      }
    },
    {
      "id": "953ebd994d7adb1cc9db204e82b7e8a788000547bdb92e1de5bf2b4ccd5eb3ad",
      "category": "sast",
      "name": "Improper Check or Handling of Exceptional Conditions",
      "message": "Errors unhandled.",
      "description": "The software does not properly anticipate or handle exceptional conditions that rarely occur during normal operation of the software.",
      "cve": "main.go:22:21: \t}\n22: \tt.Execute(os.Stdout, v)\n23: \tz := new(big.Int)\n:CWE-703",
      "severity": "Low",
      "confidence": "High",
      "raw_source_code_extract": "21: \t}\n22: \tt.Execute(os.Stdout, v)\n23: \tz := new(big.Int)\n",
      "scanner": {
        "id": "gosec",
        "name": "Gosec"
      },
      "location": {
        "file": "main.go",
        "start_line": 22
      },
      "identifiers": [
        {
          "type": "gosec_rule_id",
          "name": "Gosec Rule ID G104",
          "value": "G104",
          "url": "https://securego.io/docs/rules/g104.html"
        },
        {
          "type": "CWE",
          "name": "CWE-703",
          "value": "703",
          "url": "https://cwe.mitre.org/data/definitions/703.html"
        }
      ],
      "tracking": {
        "type": "source",
        "items": [
          {
            "file": "main.go",
            "line_start": 22,
            "line_end": 22,
            "signatures": [
              {
                "algorithm": "scope_offset",
                "value": "main.go|main[0]:10"
              }
            ]
          }
        ]
      }
    }
  ],
  "scan": {
    "analyzer": {
      "id": "gosec",
      "name": "Gosec",
      "url": "https://gitlab.com/gitlab-org/security-products/analyzers/gosec",
      "vendor": {
        "name": "GitLab"
      },
      "version": "3.5.6"
    },
    "scanner": {
      "id": "gosec",
      "name": "Gosec",
      "url": "https://github.com/securego/gosec",
      "vendor": {
        "name": "GitLab"
      },
      "version": "2.11.0"
    },
    "type": "sast",
    "start_time": "2022-02-28T17:57:02",
    "end_time": "2022-02-28T17:57:07",
    "status": "success"
  }
}
